2 Time manipulation, aggregation and summarisation | Lancaster University Leipzig LZSCC.461 R Programming
…
first() is one of the many functions we can use for aggregating data
with the group_by() %>% summarise() combo. As you will see as follows
(and in the exercises) we can do a lot more cool stuff with this
statement:

oct_summary_2 <- sea_ice_oct_grp %>% summarise(
  tot_extent = sum(extent),
  len_extent = n_distinct(extent),
  mean_extent_1 = tot_extent / len_extent,  # equivalent to below
  mean_extent_2 = mean(extent),             # equivalent to above
  sd_extent = sd(extent)
)
oct_summary_2

## # A tibble: 37 × 6
##     year tot_extent len_extent mean_extent_1 mean_extent_2 sd_extent
##    <dbl>      <dbl>      <int>         <dbl>         <dbl>     <dbl>
##  1  1978       31.0          3         10.3          10.3      0.135
##  2  1979      139.          16          8.70          8.70     0.888
##  3  1980      146.          16          9.14          9.14     0.603
##  4  1981      132.          15          8.81          8.81     0.553
##  5  1982      150.          16          9.37          9.37     0.935
##  6  1983      139.          15          9.27          9.27     0.663
##  7  1984      128.          15          8.52          8.52     0.545
##  8  1985      136.          16          8.50          8.50     0.713
##  9  1986      141.          15          9.43          9.43     0.590
## 10  1987      280.          31          9.02          9.02     0.489
## # ℹ 27 more rows
…
